<?xml version="1.0" encoding="UTF-8"?>
<!DOCTYPE svg  PUBLIC '-//W3C//DTD SVG 1.1//EN'  'http://www.w3.org/Graphics/SVG/1.1/DTD/svg11.dtd'>
<svg id="Icon" enable-background="new 0 0 48 48" version="1.1" viewBox="0 0 48 48" xml:space="preserve" xmlns="http://www.w3.org/2000/svg">
<linearGradient id="SVGID_1_" x1="24" x2="24" y2="48" gradientUnits="userSpaceOnUse">
	<stop stop-color="#E16D35" offset="0"/>
	<stop stop-color="#C93D1D" offset="1"/>
</linearGradient>
<path d="M48,42c0,3.313-2.687,6-6,6H6c-3.313,0-6-2.687-6-6V6  c0-3.313,2.687-6,6-6h36c3.313,0,6,2.687,6,6V42z" clip-rule="evenodd" fill="url(#SVGID_1_)" fill-rule="evenodd"/>
<path d="m26.697 25.824c-0.556-0.239-1.108-0.371-1.658-0.395-0.383-0.012-1.031-0.048-1.945-0.107-0.915-0.06-1.634-0.096-2.16-0.107-0.49-0.012-0.965-0.03-1.425-0.055-0.46-0.023-0.864-0.083-1.21-0.179-0.359-0.084-0.664-0.242-0.915-0.476-0.251-0.232-0.376-0.57-0.376-1.013 0-0.43 0.149-0.771 0.448-1.021s0.585-0.424 0.86-0.52h2.169c1.673 0 3.14-0.538 4.401-1.613 1.261-1.076 1.891-2.39 1.891-3.944 0-0.597-0.107-1.207-0.322-1.829-0.215-0.621-0.544-1.189-0.986-1.703v-0.107h4.159v-1.721h-6.167c-0.55-0.167-1.091-0.305-1.623-0.412s-1.067-0.162-1.604-0.162c-1.948 0-3.547 0.538-4.795 1.614-1.249 1.076-1.874 2.45-1.874 4.123 0 1.112 0.316 2.089 0.95 2.931 0.633 0.843 1.523 1.533 2.671 2.071v0.269c-0.908 0.382-1.586 0.84-2.035 1.371-0.448 0.532-0.672 1.114-0.672 1.748 0 0.502 0.096 0.923 0.287 1.264s0.442 0.637 0.753 0.888c0.275 0.215 0.603 0.403 0.986 0.564 0.382 0.161 0.753 0.296 1.111 0.403v0.251c-1.482 0.061-2.701 0.442-3.657 1.147s-1.434 1.667-1.434 2.887c0 1.506 0.664 2.649 1.99 3.433s3.328 1.175 6.005 1.175c1.637 0 3.012-0.156 4.124-0.467s2.067-0.747 2.868-1.309c0.753-0.55 1.314-1.198 1.686-1.945 0.37-0.747 0.556-1.544 0.556-2.393s-0.138-1.56-0.412-2.134c-0.275-0.573-0.652-1.087-1.13-1.542-0.454-0.417-0.959-0.746-1.515-0.985zm-4.159-6.355c-0.556 0.831-1.348 1.246-2.375 1.246-0.92 0-1.67-0.418-2.25-1.255-0.58-0.836-0.869-1.918-0.869-3.245 0-0.585 0.051-1.156 0.152-1.712s0.271-1.031 0.511-1.425c0.251-0.43 0.577-0.762 0.977-0.995s0.881-0.35 1.443-0.35c1.027 0 1.825 0.416 2.393 1.246 0.567 0.831 0.852 1.945 0.852 3.343 0 1.267-0.278 2.316-0.834 3.147zm2.761 14.754c-1.01 0.676-2.394 1.013-4.15 1.013-1.016 0-1.876-0.099-2.582-0.295-0.705-0.197-1.267-0.451-1.685-0.763-0.442-0.322-0.753-0.675-0.932-1.058-0.179-0.382-0.269-0.782-0.269-1.201 0-0.932 0.272-1.693 0.816-2.285 0.543-0.592 1.461-1.014 2.752-1.265 1.374 0 2.582 0.03 3.621 0.09 1.04 0.061 1.727 0.114 2.062 0.161 0.633 0.155 1.105 0.448 1.417 0.879 0.311 0.431 0.466 0.979 0.466 1.649-2e-3 1.374-0.506 2.4-1.516 3.075z" fill="#B7321C"/>
<path d="m33.648 16.308v3.505h1.368v-3.505h3.489v-1.345h-3.489v-3.513h-1.368v3.513h-3.489v1.345h3.489z" fill="#B7321C"/>
<path d="m26.697 27.199c-0.556-0.239-1.108-0.371-1.658-0.395-0.383-0.012-1.031-0.048-1.945-0.107-0.915-0.06-1.634-0.096-2.16-0.107-0.49-0.012-0.965-0.03-1.425-0.055-0.46-0.023-0.864-0.083-1.21-0.179-0.359-0.084-0.664-0.242-0.915-0.476-0.251-0.232-0.376-0.57-0.376-1.013 0-0.43 0.149-0.771 0.448-1.021s0.585-0.424 0.86-0.52h2.169c1.673 0 3.14-0.538 4.401-1.613 1.261-1.076 1.891-2.39 1.891-3.944 0-0.597-0.107-1.207-0.322-1.829-0.215-0.621-0.544-1.189-0.986-1.703v-0.107h4.159v-1.721h-6.167c-0.55-0.167-1.091-0.305-1.623-0.412s-1.067-0.162-1.604-0.162c-1.948 0-3.547 0.538-4.795 1.614-1.249 1.076-1.874 2.45-1.874 4.123 0 1.112 0.316 2.089 0.95 2.931 0.633 0.843 1.523 1.533 2.671 2.071v0.269c-0.908 0.382-1.586 0.84-2.035 1.371-0.448 0.532-0.672 1.114-0.672 1.748 0 0.502 0.096 0.923 0.287 1.264s0.442 0.637 0.753 0.888c0.275 0.215 0.603 0.403 0.986 0.564 0.382 0.161 0.753 0.296 1.111 0.403v0.251c-1.482 0.061-2.701 0.442-3.657 1.147s-1.434 1.667-1.434 2.887c0 1.506 0.664 2.649 1.99 3.433s3.328 1.175 6.005 1.175c1.637 0 3.012-0.156 4.124-0.467s2.067-0.747 2.868-1.309c0.753-0.55 1.314-1.198 1.686-1.945 0.37-0.747 0.556-1.544 0.556-2.393s-0.138-1.56-0.412-2.134c-0.275-0.573-0.652-1.087-1.13-1.542-0.454-0.417-0.959-0.746-1.515-0.985zm-4.159-6.355c-0.556 0.831-1.348 1.246-2.375 1.246-0.92 0-1.67-0.418-2.25-1.255-0.58-0.836-0.869-1.918-0.869-3.245 0-0.585 0.051-1.156 0.152-1.712s0.271-1.031 0.511-1.425c0.251-0.43 0.577-0.762 0.977-0.995s0.881-0.35 1.443-0.35c1.027 0 1.825 0.416 2.393 1.246 0.567 0.831 0.852 1.945 0.852 3.343 0 1.267-0.278 2.316-0.834 3.147zm2.761 14.754c-1.01 0.676-2.394 1.013-4.15 1.013-1.016 0-1.876-0.099-2.582-0.295-0.705-0.197-1.267-0.451-1.685-0.763-0.442-0.322-0.753-0.675-0.932-1.058-0.179-0.382-0.269-0.782-0.269-1.201 0-0.932 0.272-1.693 0.816-2.285 0.543-0.592 1.461-1.014 2.752-1.265 1.374 0 2.582 0.03 3.621 0.09 1.04 0.061 1.727 0.114 2.062 0.161 0.633 0.155 1.105 0.448 1.417 0.879 0.311 0.431 0.466 0.979 0.466 1.649-2e-3 1.374-0.506 2.4-1.516 3.075z" fill="#fff"/>
<path d="m33.648 17.683v3.505h1.368v-3.505h3.489v-1.345h-3.489v-3.513h-1.368v3.513h-3.489v1.345h3.489z" fill="#fff"/>
</svg>
